<svg id="Layer_1" data-name="Layer 1" xmlns="http://www.w3.org/2000/svg" viewBox="0 0 500 400">
  <defs>
    <style>
      .cls-1 {
        fill: #4eb5c6;
        stroke: #000;
        stroke-miterlimit: 10;
        stroke-width: 0.25px;
      }

      .cls-2 {
        font-size: 96px;
        font-family: MicrosoftYaHeiLight, Microsoft YaHei;
      }

      .cls-3 {
        letter-spacing: -0.12em;
      }
    </style>
  </defs>
  <title>AISCreate-WithName</title>
  <path class="cls-1" d="M6.76,243.82,162.34,88.24a4.87,4.87,0,0,1,6.89,0l35.46,35.46a4.87,4.87,0,0,1,0,6.89L170.26,165a4.87,4.87,0,0,0,0,6.89l34.43,34.43a4.87,4.87,0,0,0,6.89,0l75.75-75.75a4.87,4.87,0,0,1,6.89,0L328.64,165a4.87,4.87,0,0,1,0,6.89l-33.4,33.4a4.87,4.87,0,0,0,0,6.89l35.46,35.46a4.87,4.87,0,0,0,6.89,0l34.47-34.47a4.87,4.87,0,0,0,0-6.84L338.54,171.9a4.88,4.88,0,0,1,.05-6.85c21-21.08,30.42-30.74,34.58-35.18a4.86,4.86,0,0,1,7-.1l114,114a4.87,4.87,0,0,1-3.44,8.31H10.21A4.87,4.87,0,0,1,6.76,243.82Z"/>
  <rect class="cls-1" x="188.74" y="146.97" width="40.86" height="40.86" rx="1.81" ry="1.81" transform="translate(179.63 -98.87) rotate(45)"/>
  <rect class="cls-1" x="232.85" y="105.35" width="39.4" height="39.4" rx="2.58" ry="2.58" transform="translate(162.39 -141.95) rotate(45)"/>
  <rect class="cls-1" x="227.49" y="50.44" width="33.6" height="33.6" rx="1.9" ry="1.9" transform="translate(119.09 -153.04) rotate(45)"/>
  <rect class="cls-1" x="169.67" y="44.23" width="33.55" height="33.55" rx="1.8" ry="1.8" transform="translate(97.75 -113.97) rotate(45)"/>
  <rect class="cls-1" x="205.16" y="93.15" width="20.41" height="20.41" rx="1.41" ry="1.41" transform="translate(136.16 -122.01) rotate(45)"/>
  <rect class="cls-1" x="206.71" y="21.29" width="20.45" height="20.45" rx="1.77" ry="1.77" transform="translate(85.83 -144.17) rotate(45)"/>
  <rect class="cls-1" x="295" y="88" width="20.45" height="20.45" rx="1.5" ry="1.5" transform="translate(158.85 -187.06) rotate(45)"/>
  <rect class="cls-1" x="361.11" y="96.26" width="20.45" height="20.45" rx="1.41" ry="1.41" transform="translate(184.06 -231.38) rotate(45)"/>
  <rect class="cls-1" x="337.17" y="78.53" width="14.61" height="14.61" rx="1.55" ry="1.55" transform="translate(161.59 -218.44) rotate(45)"/>
  <rect class="cls-1" x="313.72" y="188.29" width="40.86" height="40.86" rx="2.03" ry="2.03" transform="translate(245.45 -175.15) rotate(45)"/>
  <rect class="cls-1" x="320.47" y="110.34" width="33.55" height="33.55" rx="2.58" ry="2.58" transform="translate(188.66 -201.24) rotate(45)"/>
  <rect class="cls-1" x="317.98" y="59.33" width="11.69" height="11.69" rx="1.02" ry="1.02" transform="translate(140.93 -209.89) rotate(45)"/>
  <text class="cls-2" transform="translate(0.5 338)">AIS CRE<tspan class="cls-3" x="342.56" y="0">A</tspan><tspan x="396.47" y="0">TE</tspan></text>
  <circle cx="156" cy="300" r="5"/>
</svg>
