<svg id="Layer_1" data-name="Layer 1" xmlns="http://www.w3.org/2000/svg" viewBox="0 0 500 400" style="">
  <defs>
    <style>
      .cls-1{fill:#4eb5c6;stroke:#000;stroke-width:1.5px;stroke-miterlimit:10}
    </style>
  </defs>
  <path class="cls-1 XEJPGmRv_0" d="M6.76 243.82L162.34 88.24a4.87 4.87 0 0 1 6.89 0l35.46 35.46a4.87 4.87 0 0 1 0 6.89L170.26 165a4.87 4.87 0 0 0 0 6.89l34.43 34.43a4.87 4.87 0 0 0 6.89 0l75.75-75.75a4.87 4.87 0 0 1 6.89 0L328.64 165a4.87 4.87 0 0 1 0 6.89l-33.4 33.4a4.87 4.87 0 0 0 0 6.89l35.46 35.46a4.87 4.87 0 0 0 6.89 0l34.47-34.47a4.87 4.87 0 0 0 0-6.84l-33.52-34.43a4.88 4.88 0 0 1 .05-6.85c21-21.08 30.42-30.74 34.58-35.18a4.86 4.86 0 0 1 7-.1l114 114a4.87 4.87 0 0 1-3.44 8.31H10.21a4.87 4.87 0 0 1-3.45-8.26z"></path>
  <path class="cls-1 XEJPGmRv_1" width="40.86" height="40.86" transform="rotate(45 209.162 167.398)" d="M 189.74,146.97 L 228.60000000000002,146.97 A 1,1,0,0,1,229.60000000000002,147.97 L 229.60000000000002,186.82999999999998 A 1,1,0,0,1,228.60000000000002,187.82999999999998 L 189.74,187.82999999999998 A 1,1,0,0,1,188.74,186.82999999999998 L 188.74,147.97 A 1,1,0,0,1,189.74,146.97"></path>
  <path class="cls-1 XEJPGmRv_2" width="39.4" height="39.4" transform="rotate(45 252.544 125.047)" d="M 234.85,105.35 L 270.25,105.35 A 2,2,0,0,1,272.25,107.35 L 272.25,142.75 A 2,2,0,0,1,270.25,144.75 L 234.85,144.75 A 2,2,0,0,1,232.85,142.75 L 232.85,107.35 A 2,2,0,0,1,234.85,105.35"></path>
  <path class="cls-1 XEJPGmRv_3" width="33.6" height="33.6" transform="rotate(45 244.28 67.234)" d="M 228.49,50.44 L 260.09000000000003,50.44 A 1,1,0,0,1,261.09000000000003,51.44 L 261.09000000000003,83.03999999999999 A 1,1,0,0,1,260.09000000000003,84.03999999999999 L 228.49,84.03999999999999 A 1,1,0,0,1,227.49,83.03999999999999 L 227.49,51.44 A 1,1,0,0,1,228.49,50.44"></path>
  <path class="cls-1 XEJPGmRv_4" width="33.55" height="33.55" transform="rotate(45 186.449 61.01)" d="M 170.67,44.23 L 202.21999999999997,44.23 A 1,1,0,0,1,203.21999999999997,45.23 L 203.21999999999997,76.78 A 1,1,0,0,1,202.21999999999997,77.78 L 170.67,77.78 A 1,1,0,0,1,169.67,76.78 L 169.67,45.23 A 1,1,0,0,1,170.67,44.23"></path>
  <path class="cls-1 XEJPGmRv_5" width="20.41" height="20.41" transform="rotate(45 215.36 103.355)" d="M 206.16,93.15 L 224.57,93.15 A 1,1,0,0,1,225.57,94.15 L 225.57,112.56 A 1,1,0,0,1,224.57,113.56 L 206.16,113.56 A 1,1,0,0,1,205.16,112.56 L 205.16,94.15 A 1,1,0,0,1,206.16,93.15"></path>
  <path class="cls-1 XEJPGmRv_6" width="20.45" height="20.45" transform="rotate(45 216.944 31.521)" d="M 207.71,21.29 L 226.16,21.29 A 1,1,0,0,1,227.16,22.29 L 227.16,40.739999999999995 A 1,1,0,0,1,226.16,41.739999999999995 L 207.71,41.739999999999995 A 1,1,0,0,1,206.71,40.739999999999995 L 206.71,22.29 A 1,1,0,0,1,207.71,21.29"></path>
  <path class="cls-1 XEJPGmRv_7" width="20.45" height="20.45" transform="rotate(45 305.226 98.219)" d="M 296,88 L 314.45,88 A 1,1,0,0,1,315.45,89 L 315.45,107.45 A 1,1,0,0,1,314.45,108.45 L 296,108.45 A 1,1,0,0,1,295,107.45 L 295,89 A 1,1,0,0,1,296,88"></path>
  <path class="cls-1 XEJPGmRv_8" width="20.45" height="20.45" transform="rotate(45 371.33 106.49)" d="M 362.11,96.26 L 380.56,96.26 A 1,1,0,0,1,381.56,97.26 L 381.56,115.71000000000001 A 1,1,0,0,1,380.56,116.71000000000001 L 362.11,116.71000000000001 A 1,1,0,0,1,361.11,115.71000000000001 L 361.11,97.26 A 1,1,0,0,1,362.11,96.26"></path>
  <path class="cls-1 XEJPGmRv_9" width="14.61" height="14.61" transform="rotate(45 344.475 85.836)" d="M 338.17,78.53 L 350.78000000000003,78.53 A 1,1,0,0,1,351.78000000000003,79.53 L 351.78000000000003,92.14 A 1,1,0,0,1,350.78000000000003,93.14 L 338.17,93.14 A 1,1,0,0,1,337.17,92.14 L 337.17,79.53 A 1,1,0,0,1,338.17,78.53"></path>
  <path class="cls-1 XEJPGmRv_10" width="40.86" height="40.86" transform="rotate(45 334.15 208.71)" d="M 315.72,188.29 L 352.58000000000004,188.29 A 2,2,0,0,1,354.58000000000004,190.29 L 354.58000000000004,227.14999999999998 A 2,2,0,0,1,352.58000000000004,229.14999999999998 L 315.72,229.14999999999998 A 2,2,0,0,1,313.72,227.14999999999998 L 313.72,190.29 A 2,2,0,0,1,315.72,188.29"></path>
  <path class="cls-1 XEJPGmRv_11" width="33.55" height="33.55" transform="rotate(45 337.248 127.113)" d="M 322.47,110.34 L 352.02000000000004,110.34 A 2,2,0,0,1,354.02000000000004,112.34 L 354.02000000000004,141.89 A 2,2,0,0,1,352.02000000000004,143.89 L 322.47,143.89 A 2,2,0,0,1,320.47,141.89 L 320.47,112.34 A 2,2,0,0,1,322.47,110.34"></path>
  <path class="cls-1 XEJPGmRv_12" width="11.69" height="11.69" transform="rotate(45 323.825 65.173)" d="M 318.98,59.33 L 328.67,59.33 A 1,1,0,0,1,329.67,60.33 L 329.67,70.02 A 1,1,0,0,1,328.67,71.02 L 318.98,71.02 A 1,1,0,0,1,317.98,70.02 L 317.98,60.33 A 1,1,0,0,1,318.98,59.33"></path>
  <path fill="none" stroke="none" stroke-miterlimit="10" d="M-.5 0H500v285H-.5z" class="XEJPGmRv_13"></path>
<style data-made-with="vivus-instant">.XEJPGmRv_0{stroke-dasharray:1516 1518;stroke-dashoffset:1517;animation:XEJPGmRv_draw_0 3010ms linear 0ms infinite,XEJPGmRv_fade 3010ms linear 0ms infinite;}.XEJPGmRv_1{stroke-dasharray:162 164;stroke-dashoffset:163;animation:XEJPGmRv_draw_1 3010ms linear 0ms infinite,XEJPGmRv_fade 3010ms linear 0ms infinite;}.XEJPGmRv_2{stroke-dasharray:155 157;stroke-dashoffset:156;animation:XEJPGmRv_draw_2 3010ms linear 0ms infinite,XEJPGmRv_fade 3010ms linear 0ms infinite;}.XEJPGmRv_3{stroke-dasharray:133 135;stroke-dashoffset:134;animation:XEJPGmRv_draw_3 3010ms linear 0ms infinite,XEJPGmRv_fade 3010ms linear 0ms infinite;}.XEJPGmRv_4{stroke-dasharray:133 135;stroke-dashoffset:134;animation:XEJPGmRv_draw_4 3010ms linear 0ms infinite,XEJPGmRv_fade 3010ms linear 0ms infinite;}.XEJPGmRv_5{stroke-dasharray:80 82;stroke-dashoffset:81;animation:XEJPGmRv_draw_5 3010ms linear 0ms infinite,XEJPGmRv_fade 3010ms linear 0ms infinite;}.XEJPGmRv_6{stroke-dasharray:81 83;stroke-dashoffset:82;animation:XEJPGmRv_draw_6 3010ms linear 0ms infinite,XEJPGmRv_fade 3010ms linear 0ms infinite;}.XEJPGmRv_7{stroke-dasharray:81 83;stroke-dashoffset:82;animation:XEJPGmRv_draw_7 3010ms linear 0ms infinite,XEJPGmRv_fade 3010ms linear 0ms infinite;}.XEJPGmRv_8{stroke-dasharray:81 83;stroke-dashoffset:82;animation:XEJPGmRv_draw_8 3010ms linear 0ms infinite,XEJPGmRv_fade 3010ms linear 0ms infinite;}.XEJPGmRv_9{stroke-dasharray:57 59;stroke-dashoffset:58;animation:XEJPGmRv_draw_9 3010ms linear 0ms infinite,XEJPGmRv_fade 3010ms linear 0ms infinite;}.XEJPGmRv_10{stroke-dasharray:161 163;stroke-dashoffset:162;animation:XEJPGmRv_draw_10 3010ms linear 0ms infinite,XEJPGmRv_fade 3010ms linear 0ms infinite;}.XEJPGmRv_11{stroke-dasharray:131 133;stroke-dashoffset:132;animation:XEJPGmRv_draw_11 3010ms linear 0ms infinite,XEJPGmRv_fade 3010ms linear 0ms infinite;}.XEJPGmRv_12{stroke-dasharray:46 48;stroke-dashoffset:47;animation:XEJPGmRv_draw_12 3010ms linear 0ms infinite,XEJPGmRv_fade 3010ms linear 0ms infinite;}.XEJPGmRv_13{stroke-dasharray:1571 1573;stroke-dashoffset:1572;animation:XEJPGmRv_draw_13 3010ms linear 0ms infinite,XEJPGmRv_fade 3010ms linear 0ms infinite;}@keyframes XEJPGmRv_draw{100%{stroke-dashoffset:0;}}@keyframes XEJPGmRv_fade{0%{stroke-opacity:1;}99.66777408637874%{stroke-opacity:1;}100%{stroke-opacity:0;}}@keyframes XEJPGmRv_draw_0{0%{stroke-dashoffset: 1517}49.83388704318937%{ stroke-dashoffset: 0;}100%{ stroke-dashoffset: 0;}}@keyframes XEJPGmRv_draw_1{0%{stroke-dashoffset: 163}49.83388704318937%{ stroke-dashoffset: 0;}100%{ stroke-dashoffset: 0;}}@keyframes XEJPGmRv_draw_2{0%{stroke-dashoffset: 156}49.83388704318937%{ stroke-dashoffset: 0;}100%{ stroke-dashoffset: 0;}}@keyframes XEJPGmRv_draw_3{0%{stroke-dashoffset: 134}49.83388704318937%{ stroke-dashoffset: 0;}100%{ stroke-dashoffset: 0;}}@keyframes XEJPGmRv_draw_4{0%{stroke-dashoffset: 134}49.83388704318937%{ stroke-dashoffset: 0;}100%{ stroke-dashoffset: 0;}}@keyframes XEJPGmRv_draw_5{0%{stroke-dashoffset: 81}49.83388704318937%{ stroke-dashoffset: 0;}100%{ stroke-dashoffset: 0;}}@keyframes XEJPGmRv_draw_6{0%{stroke-dashoffset: 82}49.83388704318937%{ stroke-dashoffset: 0;}100%{ stroke-dashoffset: 0;}}@keyframes XEJPGmRv_draw_7{0%{stroke-dashoffset: 82}49.83388704318937%{ stroke-dashoffset: 0;}100%{ stroke-dashoffset: 0;}}@keyframes XEJPGmRv_draw_8{0%{stroke-dashoffset: 82}49.83388704318937%{ stroke-dashoffset: 0;}100%{ stroke-dashoffset: 0;}}@keyframes XEJPGmRv_draw_9{0%{stroke-dashoffset: 58}49.83388704318937%{ stroke-dashoffset: 0;}100%{ stroke-dashoffset: 0;}}@keyframes XEJPGmRv_draw_10{0%{stroke-dashoffset: 162}49.83388704318937%{ stroke-dashoffset: 0;}100%{ stroke-dashoffset: 0;}}@keyframes XEJPGmRv_draw_11{0%{stroke-dashoffset: 132}49.83388704318937%{ stroke-dashoffset: 0;}100%{ stroke-dashoffset: 0;}}@keyframes XEJPGmRv_draw_12{0%{stroke-dashoffset: 47}49.83388704318937%{ stroke-dashoffset: 0;}100%{ stroke-dashoffset: 0;}}@keyframes XEJPGmRv_draw_13{0%{stroke-dashoffset: 1572}49.83388704318937%{ stroke-dashoffset: 0;}100%{ stroke-dashoffset: 0;}}</style></svg>
